GATE_LEVELL/GRAY_BINARY/transcript
# //  Questa Sim-64
# //  Version 10.7c win64 Aug 18 2018
# //
# //  Copyright 1991-2018 Mentor Graphics Corporation
# //  All Rights Reserved.
# //
# //  QuestaSim and its associated documentation contain trade
# //  secrets and commercial or financial information that are the property of
# //  Mentor Graphics Corporation and are privileged, confidential,
# //  and exempt from disclosure under the Freedom of Information Act,
# //  5 U.S.C. Section 552. Furthermore, this information
# //  is prohibited from disclosure under the Trade Secrets Act,
# //  18 U.S.C. Section 1905.
# //
do run.do
# QuestaSim-64 vlog 10.7c Compiler 2018.08 Aug 18 2018
# Start time: 12:48:22 on Aug 28,2025
# vlog -reportprogress 300 gray_binary.v "+acc" 
# -- Compiling module gray_binary
# -- Compiling module gray_binary_tb
# 
# Top level modules:
# 	gray_binary_tb
# End time: 12:48:22 on Aug 28,2025, Elapsed time: 0:00:00
# Errors: 0, Warnings: 0
# vsim gray_binary_tb 
# Start time: 12:48:22 on Aug 28,2025
# ** Note: (vsim-3812) Design is being optimized...
# Loading work.gray_binary_tb(fast)
# Loading work.gray_binary(fast)
# ** Warning: (vsim-3015) [PCDPC] - Port size (4) does not match connection size (1) for port 'b'. The port definition is at: gray_binary.v(1).
#    Time: 0 ns  Iteration: 0  Instance: /gray_binary_tb/GB File: gray_binary.v Line: 12
#  g=100             b=z             $time=0    
#  g=1             b=z             $time=10    
#  g=1001             b=z             $time=20    
#  g=11             b=z             $time=30    
#  g=1101             b=z             $time=40    
#  g=101             b=z             $time=60    
#  g=10             b=z             $time=70    
#  g=1             b=z             $time=80    
#  g=1101             b=z             $time=90    
do run.do
# QuestaSim-64 vlog 10.7c Compiler 2018.08 Aug 18 2018
# Start time: 12:50:12 on Aug 28,2025
# vlog -reportprogress 300 gray_binary.v "+acc" 
# -- Compiling module gray_binary
# -- Compiling module gray_binary_tb
# 
# Top level modules:
# 	gray_binary_tb
# End time: 12:50:12 on Aug 28,2025, Elapsed time: 0:00:00
# Errors: 0, Warnings: 0
# End time: 12:50:13 on Aug 28,2025, Elapsed time: 0:01:51
# Errors: 0, Warnings: 1
# vsim gray_binary_tb 
# Start time: 12:50:13 on Aug 28,2025
# ** Note: (vsim-3813) Design is being optimized due to module recompilation...
# Loading work.gray_binary_tb(fast)
# Loading work.gray_binary(fast)
#  g=100             b=111             $time=0    
#  g=1             b=1             $time=10    
#  g=1001             b=1110             $time=20    
#  g=11             b=10             $time=30    
#  g=1101             b=1001             $time=40    
#  g=101             b=110             $time=60    
#  g=10             b=11             $time=70    
#  g=1             b=1             $time=80    
#  g=1101             b=1001             $time=90    
# End time: 12:50:42 on Aug 28,2025, Elapsed time: 0:00:29
# Errors: 0, Warnings: 0
